uid,name,pass,mail,zonahoraria,status,created,mailinit,role,apellido,nombre,sexo,about,titulo,image
1,juanrojas,$S$EJrd3OjEEW1/v3nPP6MvenPtfmK4CZCVNyT9I3ceifefIBFsq.q/,juandarojas01@gmail.com,America/Bogota,1,1595116731,contacto@juandavidrojas.com,,"Rojas Longas","Juan David",21,"<p>Este es la información sobre mi</p>
",10,
3,norberto,$S$E.nCD/yp.ldpZFU6HzBsHga1XG8vEP4GrwaQRgliqwt7Qe.8Oeko,ing.norberto@gmail.com,America/Bogota,1,1436326409,ing.norberto@gmail.com,administrator,Villegas,Norberto,21,,,
48,ftoscanol,$S$DZ5vA16b04Xg9Ei/MA5pzkirBa1dYyuzff.RON3UmcpBUL7E5Xhm,ftoscanol@abogadosbaluarte.com,America/Bogota,,1437927098,ftoscanol@abogadosbaluarte.com,socio,"Toscano López","Fredy Hernando",21,"<p>Abogado de la Universidad Externado de Colombia. Especialista en Derecho Procesal Civil, Conciliador Extrajudicial en Derecho de la Cámara de Comercio de Bogotá, Máster en Derecho Privado Universidad Calos III de Madrid. Miembro del Instituto Colombiano de Derecho Procesal y del Instituto Iberoamericano de Derecho Procesal.</p>

<p><strong>Experiencia Docente</strong></p>

<p>Profesor titular del Departamento de Derecho Procesal de la Universidad Externado de Colombia.</p>

<p><strong>Experiencia Profesional</strong></p>

<p>Consultor de la Contraloría General de la República (2.013). Proyecto de Inversión para la implementación de la oralidad en el Proceso de Responsabilidad Fiscal. Elaboración de un manual del Proceso de Responsabilidad Fiscal, adecuado a las normas vigentes.</p>

<p>Asesor del Programa de las Naciones Unidas Para el Desarrollo (PNUD) y del Ministerio del Interior de Colombia, Dirección de Derechos Humanos. (2.014). Proyecto de restitución de tierras de la Comunidad afacetada por los desplazamientos en Jiguamando y Curvaradó. Aspectos procesales y probatorios.</p>

<p>Consultor de la Administradora Colombiana de Pensiones Colpensiones. (2.014). Proyecto de formulación de unificación de criterios de Defensa jurídica de la entidad.</p>

<p>Conferencista en temas procesales y probatorios en los cursos de actualización de Legis, S.A.</p>
",10,
49,ogarzong,$S$Df1X7e66ADhkSLuMQkbIwY6CO4a8gx.l86brvziyj8lkiM2iAfQ/,ogarzong@abogadosbaluarte.com,America/Bogota,1,1437928791,ogarzong@abogadosbaluarte.com,socio|administrator,"Garzón Guevara","Oscar Iván ",21,"<p>Magíster en Derecho con Énfasis en Derecho Procesal de la Universidad Externado de Colombia y candidato a magister en Razonamiento Probatorio de la Universidad de Girona (España) con doble titulación de la Universidad de Génova (Italia), miembro del Instituto Colombiano de Derecho Procesal, con formación académica como abogado litigante, asesor y consultor jurídico; experiencia laboral como funcionario público en la Rama Judicial y en temas tributarios en la Dirección de Impuestos y Aduanas Nacionales, docente de pregrado y posgrado en derecho procesal, civil y comercial.</p>
",10,45